<?xml version="1.0" encoding="UTF-8" standalone="no"?>
<!-- Created with Inkscape (http://www.inkscape.org/) -->

<svg
   width="29.739008mm"
   height="11.854486mm"
   viewBox="0 0 29.739008 11.854486"
   version="1.1"
   id="svg5"
   inkscape:version="1.1.2 (0a00cf5339, 2022-02-04)"
   sodipodi:docname="logo.svg"
   inkscape:export-filename="/home/leonardohernandezcano/Dropbox/Master bedroom/Documentos/General/Escolares/MIT/Notes/Programmatic control/pylic/pylic/logo.png"
   inkscape:export-xdpi="400.59"
   inkscape:export-ydpi="400.59"
   xmlns:inkscape="http://www.inkscape.org/namespaces/inkscape"
   xmlns:sodipodi="http://sodipodi.sourceforge.net/DTD/sodipodi-0.dtd"
   xmlns="http://www.w3.org/2000/svg"
   xmlns:svg="http://www.w3.org/2000/svg">
  <sodipodi:namedview
     id="namedview7"
     pagecolor="#ffffff"
     bordercolor="#666666"
     borderopacity="1.0"
     inkscape:pageshadow="2"
     inkscape:pageopacity="0.0"
     inkscape:pagecheckerboard="0"
     inkscape:document-units="mm"
     showgrid="false"
     inkscape:zoom="5.8033514"
     inkscape:cx="47.386412"
     inkscape:cy="37.822972"
     inkscape:window-width="1904"
     inkscape:window-height="987"
     inkscape:window-x="8"
     inkscape:window-y="48"
     inkscape:window-maximized="0"
     inkscape:current-layer="layer1"
     inkscape:snap-object-midpoints="true"
     inkscape:snap-center="true" />
  <defs
     id="defs2">
    <g
       id="g4019">
      <symbol
         overflow="visible"
         id="symbol1462">
        <path
           style="stroke:none"
           d=""
           id="path3280" />
      </symbol>
      <symbol
         overflow="visible"
         id="symbol3949">
        <path
           style="stroke:none"
           d="M 3.015625,-3.15625 H 4.71875 c 1.40625,0 2.796875,-1.03125 2.796875,-2.140625 0,-0.78125 -0.65625,-1.515625 -1.96875,-1.515625 h -3.21875 c -0.1875,0 -0.296875,0 -0.296875,0.1875 0,0.125 0.078125,0.125 0.28125,0.125 0.125,0 0.3125,0.015625 0.421875,0.015625 0.171875,0.03125 0.21875,0.046875 0.21875,0.171875 0,0.03125 0,0.0625 -0.03125,0.1875 l -1.34375,5.34375 c -0.09375,0.390625 -0.109375,0.46875 -0.90625,0.46875 -0.15625,0 -0.265625,0 -0.265625,0.1875 C 0.40625,0 0.515625,0 0.546875,0 0.828125,0 1.53125,-0.03125 1.8125,-0.03125 c 0.21875,0 0.4375,0.015625 0.640625,0.015625 0.21875,0 0.4375,0.015625 0.640625,0.015625 0.078125,0 0.203125,0 0.203125,-0.203125 0,-0.109375 -0.09375,-0.109375 -0.28125,-0.109375 -0.359375,0 -0.640625,0 -0.640625,-0.171875 0,-0.0625 0.015625,-0.109375 0.03125,-0.171875 z M 3.734375,-6.125 C 3.828125,-6.46875 3.84375,-6.5 4.28125,-6.5 h 0.953125 c 0.828125,0 1.359375,0.265625 1.359375,0.953125 0,0.390625 -0.203125,1.25 -0.59375,1.609375 -0.5,0.453125 -1.09375,0.53125 -1.53125,0.53125 H 3.0625 Z m 0,0"
           id="path4915" />
      </symbol>
    </g>
  </defs>
  <g
     inkscape:label="Capa 1"
     inkscape:groupmode="layer"
     id="layer1"
     transform="translate(-35.36213,-94.929341)">
    <text
       xml:space="preserve"
       style="font-style:normal;font-variant:normal;font-weight:normal;font-stretch:normal;font-size:10.5833px;line-height:1.25;font-family:'Noto Sans Mono';-inkscape-font-specification:'Noto Sans Mono, Normal';font-variant-ligatures:normal;font-variant-caps:normal;font-variant-numeric:normal;font-variant-east-asian:normal;fill:#000000;fill-opacity:1;stroke:none;stroke-width:0.264583"
       x="34.356716"
       y="102.97265"
       id="text1310"><tspan
         sodipodi:role="line"
         id="tspan1308"
         style="font-style:normal;font-variant:normal;font-weight:normal;font-stretch:normal;font-size:10.5833px;font-family:'Noto Sans Mono';-inkscape-font-specification:'Noto Sans Mono, Normal';font-variant-ligatures:normal;font-variant-caps:normal;font-variant-numeric:normal;font-variant-east-asian:normal;stroke-width:0.264583"
         x="34.356716"
         y="102.97265">P lic</tspan></text>
    <path
       style="fill:none;stroke:#0060e6;stroke-width:1.131;stroke-linecap:butt;stroke-linejoin:miter;stroke-miterlimit:4;stroke-dasharray:none;stroke-opacity:1"
       d="m 42.479664,98.690414 1.785568,3.626866 -2.156589,2.95797"
       id="path2957" />
    <path
       style="fill:none;stroke:#0060e6;stroke-width:1.131;stroke-linecap:butt;stroke-linejoin:miter;stroke-miterlimit:4;stroke-dasharray:none;stroke-opacity:1"
       d="m 44.265232,102.31728 1.919697,-3.626866"
       id="path2959" />
    <circle
       style="fill:#ffffff;fill-opacity:1;stroke:#0060e6;stroke-width:0.831;stroke-miterlimit:4;stroke-dasharray:none;stroke-opacity:1"
       id="path2430"
       cx="42.479664"
       cy="98.690414"
       ry="1.0930736"
       rx="1.0930001" />
    <circle
       style="fill:#ffffff;fill-opacity:1;stroke:#0060e6;stroke-width:0.831;stroke-miterlimit:4;stroke-dasharray:none;stroke-opacity:1"
       id="circle2918"
       cx="46.184929"
       cy="98.690414"
       r="1.0930736" />
    <circle
       style="fill:#ffffff;fill-opacity:1;stroke:#0060e6;stroke-width:0.831;stroke-miterlimit:4;stroke-dasharray:none;stroke-opacity:1"
       id="circle2920"
       cx="44.265232"
       cy="102.31728"
       r="1.0930736" />
    <circle
       style="fill:#ffffff;fill-opacity:1;stroke:#0060e6;stroke-width:0.831;stroke-miterlimit:4;stroke-dasharray:none;stroke-opacity:1"
       id="circle2922"
       cx="42.108643"
       cy="105.27525"
       r="1.0930736" />
    <circle
       style="fill:#ffffff;fill-opacity:1;stroke:#0060e6;stroke-width:0.831;stroke-miterlimit:4;stroke-dasharray:none;stroke-opacity:1"
       id="circle834"
       cx="42.412567"
       cy="98.690414"
       r="1.0930736" />
  </g>
</svg>
